^C:\USERS\DAM\DESKTOP\DAM\ACCESO-A-DATOS\CONSOLEAPPLICATIONFICHEROPERSONA\CONSOLEAPPLICATIONFICHEROPERSONA\STDAFX.CPP
/c /ZI /nologo /W3 /WX- /sdl /Od /Oy- /D WIN32 /D _DEBUG /D _CONSOLE /D _CRT_SECURE_NO_WARNINGS /Gm /EHsc /RTC1 /MDd /GS /fp:precise /Zc:wchar_t /Zc:forScope /Zc:inline /Yc"stdafx.h" /Fp"DEBUG\CONSOLEAPPLICATIONFICHEROPERSONA.PCH" /Fo"DEBUG\\" /Fd"DEBUG\VC140.PDB" /Gd /TP /analyze- C:\USERS\DAM\DESKTOP\DAM\ACCESO-A-DATOS\CONSOLEAPPLICATIONFICHEROPERSONA\CONSOLEAPPLICATIONFICHEROPERSONA\STDAFX.CPP
^C:\USERS\DAM\DESKTOP\DAM\ACCESO-A-DATOS\CONSOLEAPPLICATIONFICHEROPERSONA\CONSOLEAPPLICATIONFICHEROPERSONA\CONSOLEAPPLICATIONFICHEROPERSONA.CPP
/c /ZI /nologo /W3 /WX- /sdl /Od /Oy- /D WIN32 /D _DEBUG /D _CONSOLE /D _CRT_SECURE_NO_WARNINGS /Gm /EHsc /RTC1 /MDd /GS /fp:precise /Zc:wchar_t /Zc:forScope /Zc:inline /Yu"stdafx.h" /Fp"DEBUG\CONSOLEAPPLICATIONFICHEROPERSONA.PCH" /Fo"DEBUG\\" /Fd"DEBUG\VC140.PDB" /Gd /TP /analyze- C:\USERS\DAM\DESKTOP\DAM\ACCESO-A-DATOS\CONSOLEAPPLICATIONFICHEROPERSONA\CONSOLEAPPLICATIONFICHEROPERSONA\CONSOLEAPPLICATIONFICHEROPERSONA.CPP
