^C:\USERS\DAM\DESKTOP\DAM\ACCESO-A-DATOS\CONSOLEAPPLICATIONFICHEROPERSONA\CONSOLEAPPLICATIONFICHEROPERSONA\DEBUG\CONSOLEAPPLICATIONFICHEROPERSONA.OBJ|C:\USERS\DAM\DESKTOP\DAM\ACCESO-A-DATOS\CONSOLEAPPLICATIONFICHEROPERSONA\CONSOLEAPPLICATIONFICHEROPERSONA\DEBUG\STDAFX.OBJ
C:\USERS\DAM\DESKTOP\DAM\ACCESO-A-DATOS\CONSOLEAPPLICATIONFICHEROPERSONA\DEBUG\CONSOLEAPPLICATIONFICHEROPERSONA.ILK
C:\USERS\DAM\DESKTOP\DAM\ACCESO-A-DATOS\CONSOLEAPPLICATIONFICHEROPERSONA\DEBUG\CONSOLEAPPLICATIONFICHEROPERSONA.EXE
C:\USERS\DAM\DESKTOP\DAM\ACCESO-A-DATOS\CONSOLEAPPLICATIONFICHEROPERSONA\DEBUG\CONSOLEAPPLICATIONFICHEROPERSONA.PDB
